Found a 33 line (219 tokens) duplication in the following files: 
Starting at line 130 of /datadisk/danysk/Downloads/oop17-bandini-luca-deluigi-luca-evangelisti-davide-fabbri/sources/conway-sim/src/view/swing/book/BookFrame.java
Starting at line 85 of /datadisk/danysk/Downloads/oop17-bandini-luca-deluigi-luca-evangelisti-davide-fabbri/sources/conway-sim/src/view/swing/book/CampaignBookFrame.java

                            rl.getCustomBook().getRecipeByName(getSelectedItem()).getContent()).convert();
                    pg.changeGrid(mat.getWidth(), mat.getHeight());
                    final Matrix<Status> newmat = new ListMatrix<Status>(pg.getGridWidth(), pg.getGridHeight(),
                            () -> Status.DEAD);
                    Matrices.mergeXY(newmat, 0, 0, mat);
                    pg.paintGrid(0, 0, newmat.map(s -> s.equals(Status.ALIVE) ? Color.BLACK : Color.WHITE));
                }
            }

            @Override
            public void mouseClicked(final MouseEvent arg0) {
            }

            @Override
            public void mouseEntered(final MouseEvent arg0) {
            }

            @Override
            public void mouseExited(final MouseEvent arg0) {
            }

            @Override
            public void mouseReleased(final MouseEvent arg0) {
            }
        });
        // IO BUTTON PANEL
        final JPanel ioPanel = new JPanel();
        ioPanel.setLayout(new BoxLayout(ioPanel, BoxLayout.Y_AXIS));
        final JButton placeBtn = SandboxTools.newJButton(ResourceLoader.loadString("book.place"),
                ResourceLoader.loadString("book.placett"));
        // ACTION LISTENER PLACE BUTTON
        final ActionListener place = e -> {
            final Matrix<Status> mat;
=====================================================================
Found a 28 line (163 tokens) duplication in the following files: 
Starting at line 89 of /datadisk/danysk/Downloads/oop17-bandini-luca-deluigi-luca-evangelisti-davide-fabbri/sources/conway-sim/src/view/swing/book/BookFrame.java
Starting at line 130 of /datadisk/danysk/Downloads/oop17-bandini-luca-deluigi-luca-evangelisti-davide-fabbri/sources/conway-sim/src/view/swing/book/BookFrame.java
Starting at line 85 of /datadisk/danysk/Downloads/oop17-bandini-luca-deluigi-luca-evangelisti-davide-fabbri/sources/conway-sim/src/view/swing/book/CampaignBookFrame.java

                            rl.getDefaultBook().getRecipeByName(getSelectedItem()).getContent()).convert();
                    pg.changeGrid(mat.getWidth(), mat.getHeight());
                    final Matrix<Status> newmat = new ListMatrix<Status>(pg.getGridWidth(), pg.getGridHeight(),
                            () -> Status.DEAD);
                    Matrices.mergeXY(newmat, 0, 0, mat);
                    pg.paintGrid(0, 0, newmat.map(s -> s.equals(Status.ALIVE) ? Color.BLACK : Color.WHITE));
                }

            }

            @Override
            public void mouseClicked(final MouseEvent arg0) {
            }

            @Override
            public void mouseEntered(final MouseEvent arg0) {
            }

            @Override
            public void mouseExited(final MouseEvent arg0) {
            }

            @Override
            public void mouseReleased(final MouseEvent arg0) {
            }
        });

        final String[] stringCustomArr = new String[custRecList.size()];
=====================================================================
Found a 5 line (72 tokens) duplication in the following files: 
Starting at line 65 of /datadisk/danysk/Downloads/oop17-bandini-luca-deluigi-luca-evangelisti-davide-fabbri/sources/conway-sim/src/controller/io/LevelLoader.java
Starting at line 64 of /datadisk/danysk/Downloads/oop17-bandini-luca-deluigi-luca-evangelisti-davide-fabbri/sources/conway-sim/src/controller/io/RecipeLoader.java

                            new InputStreamReader(getClass().getResourceAsStream(DEFBOOK + name), "UTF-8"))) {
                        final List<String> strLst = br.lines().collect(Collectors.toList());
                        final String content = String.join("\n", strLst);
                        testLine = strLst.get(0);
                        if (testLine != null && !testLine.equals("") && testLine.startsWith("#N")) {
=====================================================================
Found a 6 line (66 tokens) duplication in the following files: 
Starting at line 73 of /datadisk/danysk/Downloads/oop17-bandini-luca-deluigi-luca-evangelisti-davide-fabbri/sources/conway-sim/src/view/Colors.java
Starting at line 85 of /datadisk/danysk/Downloads/oop17-bandini-luca-deluigi-luca-evangelisti-davide-fabbri/sources/conway-sim/src/view/Colors.java

            } else if (cellType.equals(CellType.GOLDEN)) {
                return status.equals(Status.ALIVE) ? Colors.GOLD : Colors.LIGHT_GOLD;
            } else if (cellType.equals(CellType.WALL)) {
                return status.equals(Status.ALIVE) ? Color.DARK_GRAY : Color.LIGHT_GRAY;
            } else {
                return Colors.blend(Color.RED, status.equals(Status.ALIVE) ? Color.BLACK : Color.WHITE);
=====================================================================
Found a 4 line (66 tokens) duplication in the following files: 
Starting at line 63 of /datadisk/danysk/Downloads/oop17-bandini-luca-deluigi-luca-evangelisti-davide-fabbri/sources/conway-sim/test/test/TestGenerationComputation.java
Starting at line 88 of /datadisk/danysk/Downloads/oop17-bandini-luca-deluigi-luca-evangelisti-davide-fabbri/sources/conway-sim/test/test/TestGenerationComputation.java

    public void testSomeComputations() {
        final Environment env = EnvironmentFactory.standardRules(BEFORE.getWidth(), BEFORE.getHeight());
        final Generation start = GenerationFactory.from(BEFORE.map(b -> new SimpleCell(b ? ALIVE : DEAD)), env);
        assertEquals(AFTER_THREE_STANDARD.map(BOOLEAN_TO_STATUS), Generations.compute(3, start).getCellMatrix().map(Cell::getStatus), "Wrong computation result");
=====================================================================
Found a 5 line (64 tokens) duplication in the following files: 
Starting at line 270 of /datadisk/danysk/Downloads/oop17-bandini-luca-deluigi-luca-evangelisti-davide-fabbri/sources/conway-sim/src/view/swing/sandbox/JGridPanel.java
Starting at line 283 of /datadisk/danysk/Downloads/oop17-bandini-luca-deluigi-luca-evangelisti-davide-fabbri/sources/conway-sim/src/view/swing/sandbox/JGridPanel.java

                this.labelMatrix = Matrices.mergeXY(
                        new ListMatrix<>(horizontal, vertical, () -> new JCell(this.cellSize, Color.WHITE)), 0, 0,
                        this.labelMatrix);
            } else {
                this.labelMatrix = Matrices.cut(this.labelMatrix, 0, vertical - 1, 0, this.labelMatrix.getWidth() - 1);
=====================================================================
Found a 4 line (64 tokens) duplication in the following files: 
Starting at line 49 of /datadisk/danysk/Downloads/oop17-bandini-luca-deluigi-luca-evangelisti-davide-fabbri/sources/conway-sim/test/test/TestGenerationComputation.java
Starting at line 75 of /datadisk/danysk/Downloads/oop17-bandini-luca-deluigi-luca-evangelisti-davide-fabbri/sources/conway-sim/test/test/TestGenerationComputation.java

    public void testOneComputation() {
        final Environment env = EnvironmentFactory.standardRules(BEFORE.getWidth(), BEFORE.getHeight());
        final Generation start = GenerationFactory.from(BEFORE.map(b -> new SimpleCell(b ? ALIVE : DEAD)), env);
        assertEquals(AFTER_STANDARD.map(BOOLEAN_TO_STATUS), Generations.compute(start).getCellMatrix().map(Cell::getStatus),
=====================================================================
Found a 4 line (61 tokens) duplication in the following files: 
Starting at line 270 of /datadisk/danysk/Downloads/oop17-bandini-luca-deluigi-luca-evangelisti-davide-fabbri/sources/conway-sim/src/controller/editor/GridEditorImpl.java
Starting at line 282 of /datadisk/danysk/Downloads/oop17-bandini-luca-deluigi-luca-evangelisti-davide-fabbri/sources/conway-sim/src/controller/editor/GridEditorImpl.java

                    this.setCurrentStatus(Matrices.mergeXY(new ListMatrix<>(horizontal, vertical, () -> Status.DEAD), 0,
                            0, this.getCurrentStatus()));
                } else {
                    this.setCurrentStatus(Matrices.cut(this.getCurrentStatus(), 0, vertical - 1, 0,
=====================================================================
Found a 12 line (57 tokens) duplication in the following files: 
Starting at line 44 of /datadisk/danysk/Downloads/oop17-bandini-luca-deluigi-luca-evangelisti-davide-fabbri/sources/conway-sim/src/controller/generation/GenerationControllerImpl.java
Starting at line 72 of /datadisk/danysk/Downloads/oop17-bandini-luca-deluigi-luca-evangelisti-davide-fabbri/sources/conway-sim/src/controller/generation/GenerationControllerImpl.java

    public void newGame() {
        this.setCurrentNumberGeneration(0);
        this.currentGeneration = this.view.getGridEditor().getGeneration();
        this.oldGeneration = new GenerationHistory(this.currentGeneration);
        this.view.scheduleGUIUpdate(() -> this.view.refreshView());
    }

    /**
     * {@inheritDoc}
     */
    @Override
    public void pause() {
=====================================================================
Found a 4 line (52 tokens) duplication in the following files: 
Starting at line 49 of /datadisk/danysk/Downloads/oop17-bandini-luca-deluigi-luca-evangelisti-davide-fabbri/sources/conway-sim/test/test/TestGenerationComputation.java
Starting at line 63 of /datadisk/danysk/Downloads/oop17-bandini-luca-deluigi-luca-evangelisti-davide-fabbri/sources/conway-sim/test/test/TestGenerationComputation.java
Starting at line 75 of /datadisk/danysk/Downloads/oop17-bandini-luca-deluigi-luca-evangelisti-davide-fabbri/sources/conway-sim/test/test/TestGenerationComputation.java
Starting at line 88 of /datadisk/danysk/Downloads/oop17-bandini-luca-deluigi-luca-evangelisti-davide-fabbri/sources/conway-sim/test/test/TestGenerationComputation.java

    public void testOneComputation() {
        final Environment env = EnvironmentFactory.standardRules(BEFORE.getWidth(), BEFORE.getHeight());
        final Generation start = GenerationFactory.from(BEFORE.map(b -> new SimpleCell(b ? ALIVE : DEAD)), env);
        assertEquals(AFTER_STANDARD.map(BOOLEAN_TO_STATUS), Generations.compute(start).getCellMatrix().map(Cell::getStatus),
